…
city_state_df = 
  city_state_df %>%
  mutate(
    odds_ratio = exp(estimate),  
    lower_ci = exp(estimate - 1.96 * std.error),  
    upper_ci = exp(estimate + 1.96 * std.error)   
  ) %>%
  select(city_state, odds_ratio, lower_ci, upper_ci)  

print(city_state_df)
```

    ## # A tibble: 47 × 4
    ## # Groups:   city_state [47]
    ##    city_state      odds_ratio lower_ci upper_ci
    ##    <chr>                <dbl>    <dbl>    <dbl>
    ##  1 Albuquerque, NM      0.430    0.148    1.25 
    ##  2 Atlanta, GA          0.512    0.328    0.799
    ##  3 Baltimore, MD        0.355    0.268    0.469
    ##  4 Baton Rouge, LA      0.319    0.166    0.612
    ##  5 Birmingham, AL       0.704    0.450    1.10 
    ##  6 Boston, MA           0.674    0.356    1.28 
    ##  7 Buffalo, NY          0.438    0.241    0.796
    ##  8 Charlotte, NC        0.301    0.151    0.598
    ##  9 Chicago, IL          0.391    0.321    0.476
    ## 10 Cincinnati, OH       0.206    0.104    0.408
    ## # ℹ 37 more rows
…
